{
  "type": "postgres",
  "host": "localhost",
  "port": 5433,
  "username": "postgres",
  "password": "postgres",
  "database": "nestjs-backend",
  "entities": ["src/**/*.entity.ts"],
  "migrationsTableName": "migrations",
  "migrations": ["src/database/migrations/*.ts"],
  "cli": {
    "migrationsDir": "src/database/migrations"
  }
}
